{
  "Dale": {
    "name": "Dale",
    "descriptors": [-0.01984637975692749,0.07503001391887665,-0.022271253168582916,-0.014664905145764351,-0.11278560012578964,0.007309789769351482,0.04909064248204231,-0.06762062013149261,0.14775194227695465,-0.014977246522903442,0.14752939343452454,-0.08455200493335724,-0.28967714309692383,-0.04498250037431717,0.038991935551166534,0.0904262512922287,-0.10495098680257797,-0.144577756524086,-0.09778838604688644,-0.1120327040553093,0.04663362354040146,0.036102086305618286,0.013837765902280807,0.10859762132167816,-0.11984533071517944,-0.24914610385894775,-0.05987479165196419,-0.18693584203720093,-0.013516520150005817,-0.16030186414718628,0.03381524980068207,0.09084741771221161,-0.05999604985117912,0.028178228065371513,-0.013769867829978466,0.010184921324253082,-0.08648378401994705,-0.13210566341876984,0.22147305309772491,-0.0577048733830452,-0.15243037045001984,-0.018066398799419403,-0.022660773247480392,0.23966409265995026,0.20482401549816132,-0.04186341539025307,0.0611441507935524,-0.03331206738948822,0.1322474330663681,-0.2260676920413971,0.08826913684606552,0.15406624972820282,0.09488094598054886,0.11986367404460907,0.006324694491922855,-0.18640045821666718,-0.020403504371643066,0.15166321396827698,-0.24801704287528992,0.06703432649374008,0.047016315162181854,-0.10891956835985184,-0.03497181087732315,-0.08351827412843704,0.19355720281600952,0.17767548561096191,-0.12019140273332596,-0.1756593883037567,0.14648017287254333,-0.24349288642406464,-0.11519771814346313,0.10018089413642883,-0.17473837733268738,-0.16532853245735168,-0.21656343340873718,0.036862343549728394,0.3655402958393097,0.11650298535823822,-0.1477023810148239,-0.036074332892894745,-0.06583943217992783,0.01717710867524147,0.014529749751091003,0.06968998163938522,-0.07000724971294403,-0.09370818734169006,-0.09956374019384384,0.01157643273472786,0.19355998933315277,-0.04134632647037506,-0.1174168586730957,0.1926860362291336,0.01177214551717043,-0.008348519913852215,0.028765544295310974,0.02757301554083824,0.002064267173409462,0.027032360434532166,-0.00818549282848835,0.06947898864746094,-0.05436667054891586,-0.1523042619228363,-0.02906169928610325,0.04790505766868591,-0.13501480221748352,0.24427108466625214,-0.008331089280545712,0.05395826697349548,-0.09217417985200882,-0.04184924066066742,-0.09502506256103516,0.07828202098608017,0.22610017657279968,-0.2986012101173401,0.20422135293483734,0.1059006080031395,0.10278124362230301,0.17195382714271545,-0.06652700155973434,0.11670577526092529,-0.02833772823214531,-0.08369748294353485,-0.22799061238765717,-0.021356303244829178,0.08351661264896393,0.03244013339281082,0.01914285495877266,0.09309420734643936]
  },
  "Cameron": {
    "name": "Cameron",
    "descriptors": [-0.21051213145256042,0.1329784095287323,0.06122713163495064,-0.028923172503709793,-0.0748504102230072,-0.06882064789533615,-0.020740123465657234,-0.07743833214044571,0.08161482214927673,0.06251005083322525,0.23329836130142212,-0.06055920571088791,-0.3075847923755646,0.006225677207112312,-0.14841222763061523,0.10572093725204468,-0.13280853629112244,-0.07994232326745987,-0.11444211006164551,-0.17152036726474762,0.07212002575397491,0.05353968217968941,0.024324875324964523,0.050463128834962845,-0.14263637363910675,-0.23154044151306152,-0.08241450786590576,-0.12843450903892517,0.06212861090898514,-0.08129528164863586,0.029658924788236618,-0.0494508258998394,-0.1677197813987732,-0.07284273207187653,0.042810969054698944,0.013996746391057968,0.028290901333093643,-0.07027967274188995,0.21651960909366608,-0.05720243602991104,-0.07569094002246857,0.06910093128681183,0.09076278656721115,0.3520469069480896,0.07687193900346756,0.10453715920448303,0.0066809505224227905,-0.023261627182364464,0.07567757368087769,-0.22326920926570892,0.10459108650684357,0.15067815780639648,0.08992347121238708,-0.006398649886250496,0.08342596888542175,-0.17658662796020508,-0.0253872312605381,0.17687615752220154,-0.2350156456232071,0.12287644296884537,0.03541647642850876,0.020426204428076744,-0.0301816426217556,-0.14973188936710358,0.1745956540107727,0.14078566431999207,-0.1629452109336853,-0.06672434508800507,0.11570959538221359,-0.17717468738555908,0.05534914508461952,0.06609147042036057,-0.1117388904094696,-0.15669292211532593,-0.24671746790409088,0.08448284864425659,0.4971173107624054,0.14702759683132172,-0.14024260640144348,-0.017095783725380898,-0.031862493604421616,-0.027493607252836227,0.051544189453125,-0.018759142607450485,-0.17799526453018188,0.02387365698814392,-0.09787004441022873,0.041931625455617905,0.17600876092910767,0.03665096312761307,-0.0643792375922203,0.2317577749490738,0.024303555488586426,-0.04517064988613129,0.02151571586728096,0.040415242314338684,-0.1403411626815796,-0.1084471270442009,-0.04881303757429123,0.041495803743600845,-0.021581586450338364,-0.14253363013267517,0.01678740233182907,0.06389310210943222,-0.12549108266830444,0.03316627815365791,0.0026518022641539574,-0.024831123650074005,-0.1197013407945633,0.10046874731779099,-0.108369842171669,-0.053236670792102814,0.1761850118637085,-0.2317783087491989,0.16501803696155548,0.1682150959968567,0.007042033597826958,0.12528273463249207,0.043464239686727524,0.03681091219186783,0.0006743809208273888,0.058535926043987274,-0.04672592878341675,-0.12633180618286133,0.043618422001600266,-0.08340216428041458,0.1521337777376175,0.04367895424365997]
  },
  "Ovi": {
    "name": "Ovi",
    "descriptors": [-0.06677890568971634,0.09182959794998169,0.06352796405553818,-0.013795144855976105,-0.06245309114456177,0.14837393164634705,-0.05854121595621109,-0.05481556057929993,0.1042032539844513,-0.1981416940689087,0.2582102417945862,-0.01357106864452362,-0.2736777663230896,0.011005360633134842,0.05853979289531708,0.10207600891590118,-0.16256961226463318,-0.105494923889637,-0.12255360931158066,-0.09179652482271194,-0.04700805991888046,0.021617770195007324,-0.05338573828339577,0.0039042001590132713,-0.1480652391910553,-0.26651230454444885,-0.02761312574148178,-0.08740870654582977,-0.04069797694683075,-0.14306984841823578,-0.04094798490405083,0.012250690720975399,-0.08800412714481354,0.0416419580578804,-0.0021164529025554657,0.16604404151439667,-0.1112559586763382,-0.007457186933606863,0.12455178797245026,-0.040190525352954865,-0.11560367792844772,0.07862746715545654,0.03315502405166626,0.23345232009887695,0.15591122210025787,0.030666014179587364,-0.0012028440833091736,-0.08207476139068604,0.1349426507949829,-0.30951377749443054,0.0512419156730175,0.1386546790599823,0.0979384332895279,0.1644005924463272,0.09726675599813461,-0.1805727779865265,-0.02874128520488739,0.17835167050361633,-0.05397982522845268,0.1067855954170227,0.025840094313025475,-0.07027409970760345,0.013606436550617218,-0.06411416083574295,0.23048438131809235,0.15800195932388306,-0.12478857487440109,-0.17766210436820984,0.1566201001405716,-0.12675629556179047,-0.1782110184431076,0.08669199794530869,-0.09742581844329834,-0.19403518736362457,-0.20621582865715027,0.11569775640964508,0.33116415143013,0.15531496703624725,-0.1783985197544098,-0.007118808105587959,0.002010634634643793,-0.04983137920498848,0.030503619462251663,0.12071574479341507,-0.04954090341925621,-0.06442978233098984,-0.0344579741358757,0.017832761630415916,0.2406613677740097,0.006028554867953062,0.007811099290847778,0.18772125244140625,0.006229644641280174,0.03877698630094528,0.05961674079298973,0.005649026483297348,-0.08708174526691437,-0.01151569839566946,-0.18243327736854553,-0.048773325979709625,-0.023674366995692253,-0.12959302961826324,-0.027152668684720993,0.1015741229057312,-0.1603594422340393,0.24626702070236206,-0.07432108372449875,-0.008934800513088703,0.03629351034760475,0.06591542065143585,-0.03531280532479286,0.0635717436671257,0.21182464063167572,-0.3209207057952881,0.1997711956501007,0.1925608068704605,0.10643281787633896,0.12559299170970917,0.08428304642438889,0.10733737796545029,0.025712253525853157,0.03944126516580582,-0.2581377923488617,-0.09454892575740814,0.009638356976211071,-0.03424737602472305,-0.06360847502946854,0.03688228875398636]
  },
  "Robert": {
    "name": "Robert",
    "descriptors": [-0.10080444067716599,0.014234897680580616,-0.015577935613691807,-0.07704135030508041,-0.14579354226589203,0.012310009449720383,0.002244735136628151,-0.028813928365707397,0.10047312080860138,-0.05810393765568733,0.11414723098278046,0.033303648233413696,-0.2614273428916931,-0.06782373040914536,0.02094246819615364,0.13272303342819214,-0.15877649188041687,-0.1659160703420639,-0.08836933970451355,-0.08079524338245392,0.10289274901151657,0.0550641193985939,-0.012363377958536148,0.12494466453790665,-0.18591320514678955,-0.23345611989498138,-0.11206243187189102,-0.12140773236751556,-0.04020114988088608,-0.11255533248186111,0.06310325860977173,0.05434165522456169,-0.1070123016834259,0.004039088264107704,0.06551988422870636,0.15806059539318085,-0.06025797873735428,-0.0770721286535263,0.22308747470378876,0.04323207587003708,-0.14566844701766968,0.07329906523227692,0.010285811498761177,0.2946000099182129,0.1478259116411209,0.05716283619403839,-0.0006377212703227997,0.0047312043607234955,0.1653926968574524,-0.27995550632476807,0.08736670017242432,0.16814415156841278,0.15476718544960022,0.07473721355199814,0.03315223380923271,-0.12573541700839996,0.13768690824508667,0.21476046741008759,-0.3184393644332886,0.1047993153333664,0.006149919703602791,-0.2520875632762909,-0.00565690640360117,-0.005418363027274609,0.1672925502061844,0.11933747678995132,-0.13675323128700256,-0.14412949979305267,0.11834178864955902,-0.2007114738225937,-0.12290127575397491,0.07096394896507263,-0.137545645236969,-0.15826666355133057,-0.2827446758747101,0.054077498614788055,0.41949477791786194,0.15831540524959564,-0.21824924647808075,0.004970254376530647,0.014550287276506424,0.008253367617726326,0.07627472281455994,0.1206994280219078,-0.0946618989109993,-0.11374638974666595,-0.15640254318714142,0.009719053283333778,0.1733453869819641,-0.005264253355562687,-0.02498621679842472,0.27152085304260254,0.08728901296854019,0.05909696966409683,0.06467331945896149,0.004184909164905548,-0.0565694198012352,-0.03141650930047035,0.0006096828728914261,0.027542967349290848,0.0059754131361842155,-0.13212759792804718,0.0036299005150794983,0.05984862148761749,-0.13376103341579437,0.17256073653697968,-0.06031149998307228,-0.01965925469994545,-0.08119960129261017,-0.027194131165742874,-0.16521817445755005,-0.020658759400248528,0.16867560148239136,-0.2897194027900696,0.17347878217697144,0.2233612835407257,-0.00537847401574254,0.12900042533874512,0.06275656074285507,0.08634673058986664,-0.03259003534913063,-0.05120287835597992,-0.2060384452342987,-0.051888950169086456,0.125377357006073,-0.04205476865172386,0.0754835456609726,0.03132473677396774]
  },
  "Fifa": {
    "name": "ฟีฟ่า",
    "descriptors": [-0.12032189220190048,0.11401766538619995,0.027049962431192398,-0.07449056208133698,-0.13005168735980988,-0.011635963805019855,-0.1395517885684967,-0.08825921267271042,0.12740084528923035,-0.16112872958183289,0.2091868370771408,-0.11011004447937012,-0.24211245775222778,-0.011263888329267502,-0.108492411673069,0.3174244463443756,-0.2164686769247055,-0.166808620095253,0.007938406430184841,-0.010767625644803047,0.026155710220336914,-0.002250850200653076,0.003937514033168554,0.08262810111045837,-0.08560725301504135,-0.36742499470710754,-0.09175944328308105,-0.06463257223367691,-0.09842383861541748,-0.02860230952501297,-0.04424617066979408,0.05679722875356674,-0.16832521557807922,0.0004763249307870865,0.059861920773983,0.11376610398292542,0.012174570932984352,-0.07122336328029633,0.14515642821788788,0.018977481871843338,-0.29084548354148865,0.04120642691850662,0.12428785860538483,0.2368590384721756,0.11583778262138367,0.019907215610146523,0.0017406977713108063,-0.16006024181842804,0.0470259003341198,-0.1673276573419571,0.0388038232922554,0.1517287790775299,0.024711061269044876,0.07026942819356918,0.03114313818514347,-0.11260932683944702,0.05742992088198662,0.14374177157878876,-0.10968656837940216,-0.058774881064891815,0.06798478960990906,-0.005430310498923063,0.0317741297185421,-0.14670208096504211,0.28199896216392517,0.15119090676307678,-0.10158694535493851,-0.19051803648471832,0.15265430510044098,-0.10653357207775116,-0.12488041818141937,0.056391067802906036,-0.1434651017189026,-0.19265006482601166,-0.2972578704357147,-0.013730286620557308,0.39660581946372986,0.17455953359603882,-0.16112110018730164,0.10534067451953888,0.015251290053129196,-0.06372887641191483,0.11202511191368103,0.23300354182720184,0.02699783816933632,0.06443141400814056,-0.0021884064190089703,-0.004907432943582535,0.2178184539079666,-0.029656819999217987,-0.03238837420940399,0.1852206140756607,-0.02610066533088684,0.06020478159189224,0.03739754483103752,-0.004713734611868858,-0.0701400563120842,0.008538663387298584,-0.17963136732578278,-0.08688348531723022,-0.06991353631019592,0.011533129960298538,-0.041909292340278625,0.10041569173336029,-0.14818330109119415,0.06978645920753479,0.00346648832783103,-0.017719948664307594,-0.03605355694890022,0.1388804167509079,-0.009938388131558895,-0.05276079475879669,0.11256590485572815,-0.21185871958732605,0.20825263857841492,0.15322339534759521,0.05669026076793671,0.12063591927289963,0.1407342106103897,0.11949574947357178,-0.01695290580391884,-0.06341825425624847,-0.18815559148788452,-0.027392029762268066,0.11252411454916,-0.057441599667072296,0.1344674974679947,0.021045105531811714]
   },
  "Faii": {
    "name": "ฝ้าย",
    "descriptors": [-0.002315972000360489,0.05188530683517456,0.07420888543128967,-0.12062187492847443,-0.16134414076805115,-0.004723425954580307,-0.1279362291097641,-0.08310744166374207,0.18673375248908997,-0.16808398067951202,0.2393558770418167,-0.1472717523574829,-0.15794004499912262,-0.002862876281142235,-0.026173295453190804,0.2209540456533432,-0.22274453938007355,-0.12403859198093414,0.007499845698475838,-0.04470337927341461,0.03284902125597,-0.010663900524377823,0.011900498531758785,0.06323754042387009,-0.1295102834701538,-0.3592633605003357,-0.09274625778198242,-0.05810815095901489,-0.028824741020798683,-0.07557675987482071,-0.08152544498443604,0.1357479691505432,-0.1666758805513382,-0.047061607241630554,0.06202142685651779,0.15018397569656372,-0.008352920413017273,-0.10572928935289383,0.12507592141628265,-0.03833846002817154,-0.25041308999061584,0.05136885493993759,0.07544136047363281,0.22061359882354736,0.1587451845407486,0.03941236436367035,-0.02075646072626114,-0.12132379412651062,0.11791065335273743,-0.1220281720161438,0.0879782885313034,0.14848417043685913,0.0572919100522995,0.03070659749209881,0.01999342255294323,-0.12954263389110565,0.028442837297916412,0.22630208730697632,-0.16599202156066895,-0.012076806277036667,0.12332218885421753,-0.07250022143125534,0.04954808950424194,-0.15948399901390076,0.24251659214496613,0.15824301540851593,-0.10293503850698471,-0.20938360691070557,0.10188550502061844,-0.06665158271789551,-0.08132628351449966,0.04738471657037735,-0.20654676854610443,-0.18035122752189636,-0.2809598743915558,-0.010057242587208748,0.3635593354701996,0.08861301839351654,-0.16659490764141083,0.027628349140286446,0.012111962772905827,-0.035860367119312286,0.10742993652820587,0.17764757573604584,0.027927575632929802,-0.013174084946513176,-0.04686291143298149,-0.00010571256279945374,0.20843885838985443,-0.053482525050640106,-0.024115636944770813,0.17407242953777313,-0.08294017612934113,0.0018271561712026596,-0.022001005709171295,-0.011652747169137001,-0.12880215048789978,0.09155848622322083,-0.17512643337249756,-0.043721117079257965,-0.07272236049175262,-0.03831946849822998,-0.06912173330783844,0.13728296756744385,-0.2008657306432724,0.08889926970005035,-0.018238797783851624,-0.004448838531970978,-0.010865263640880585,0.016607632860541344,-0.054376184940338135,-0.07870664447546005,0.17203813791275024,-0.2616182565689087,0.13988420367240906,0.16607272624969482,0.13616690039634705,0.16600346565246582,0.08798650652170181,0.11270342022180557,0.021386925131082535,-0.04760923609137535,-0.2432362288236618,0.029889831319451332,0.0895000621676445,-0.028631240129470825,0.083552286028862,0.03990482911467552]
  },
  "Deenee": {
    "name": "ดีนี่",
    "descriptors": [-0.08891130983829498,0.07720890641212463,0.039080969989299774,-0.04955315589904785,-0.06335018575191498,0.038123808801174164,-0.11484085768461227,-0.05320518836379051,0.21418257057666779,-0.16690847277641296,0.19270338118076324,-0.11338158696889877,-0.19548438489437103,-0.06463423371315002,-0.09886464476585388,0.2586861252784729,-0.19190190732479095,-0.12402324378490448,-0.06629946082830429,0.01608406752347946,0.057476796209812164,0.05330955237150192,-0.03506671264767647,0.04911160469055176,-0.13832169771194458,-0.4486430585384369,-0.09949509799480438,-0.039665400981903076,-0.07034190744161606,-0.04152011126279831,-0.14060468971729279,0.08441387116909027,-0.1522808074951172,-0.05710021033883095,0.04604851454496384,0.12173446267843246,-0.0152327511459589,-0.08651904761791229,0.12221887707710266,0.06157207489013672,-0.27573418617248535,0.04010295867919922,0.09197324514389038,0.26466187834739685,0.17724359035491943,0.056058384478092194,0.00814821943640709,-0.11273908615112305,0.12662000954151154,-0.17640724778175354,-0.014569105580449104,0.1653488576412201,0.09265543520450592,0.06756438314914703,0.04431471973657608,-0.07771573960781097,0.002026796340942383,0.16730912029743195,-0.1426374465227127,-0.048701997846364975,0.04426277428865433,-0.07385897636413574,-0.003818628378212452,-0.11083517223596573,0.2209681272506714,0.1372891217470169,-0.13066911697387695,-0.19810128211975098,0.11825184524059296,-0.14809297025203705,-0.06537748873233795,0.013003429397940636,-0.130159392952919,-0.2152087390422821,-0.33506080508232117,0.0033680524211376905,0.3682894706726074,0.14131662249565125,-0.16948673129081726,0.07253985106945038,0.01789100281894207,-0.04639378562569618,0.11587243527173996,0.2331056445837021,-0.020587468519806862,0.07336793839931488,-0.026694415137171745,-0.02352626621723175,0.23116880655288696,-0.005266185849905014,0.0038725733757019043,0.19184380769729614,-0.03402172774076462,0.03144223615527153,0.005594274960458279,-0.003844943828880787,-0.13047346472740173,0.029399726539850235,-0.12968342006206512,-0.02383163385093212,-0.0034020384773612022,0.01439609657973051,-0.014664141461253166,0.10897029936313629,-0.150017648935318,0.12856723368167877,-0.03413498401641846,0.002590351505205035,0.03741772845387459,0.00508482288569212,-0.05672086775302887,-0.0631755143404007,0.12405834347009659,-0.21133320033550262,0.07708275318145752,0.14087703824043274,0.0655595138669014,0.1542290449142456,0.1460467129945755,0.09807946532964706,-0.014484956860542297,0.011664874851703644,-0.24030853807926178,-0.03584643453359604,0.11655458807945251,-0.062426064163446426,0.10346759855747223,-0.03673182800412178]
  },
  "Cake": {
    "name": "เค้ก",
    "descriptors": [-0.1238301619887352,0.07992982119321823,0.01827368699014187,-0.08342763781547546,-0.18106018006801605,-0.03678598999977112,-0.07416137307882309,-0.10036224871873856,0.10276182740926743,-0.07021898776292801,0.18432378768920898,-0.14569248259067535,-0.18893758952617645,-0.02518882229924202,-0.08671228587627411,0.3023371696472168,-0.16092179715633392,-0.14843443036079407,-0.03877512365579605,-0.03230397403240204,0.050801876932382584,0.03178202733397484,-0.019261730834841728,0.10304465889930725,-0.12360411882400513,-0.3010796308517456,-0.08053794503211975,-0.057735491544008255,-0.061093494296073914,-0.0681007131934166,-0.05275861918926239,0.03402334451675415,-0.22678311169147491,-0.03258853405714035,0.06963685154914856,0.12370003014802933,-0.029548760503530502,-0.1333748698234558,0.13692927360534668,0.021230321377515793,-0.3033965826034546,0.0950411930680275,0.13791722059249878,0.24160602688789368,0.16267283260822296,0.01969033293426037,0.029990635812282562,-0.15018834173679352,0.08414547890424728,-0.1777721345424652,0.025740552693605423,0.13178835809230804,0.024319574236869812,0.04591076076030731,-0.04175439104437828,-0.10008763521909714,0.041714027523994446,0.16345536708831787,-0.15599325299263,-0.002582666464149952,0.12780040502548218,-0.06795395910739899,-0.02370903268456459,-0.1745319366455078,0.2325846254825592,0.11509522795677185,-0.1122993528842926,-0.2447516918182373,0.08086255937814713,-0.18825693428516388,-0.13587293028831482,0.08479079604148865,-0.13480257987976074,-0.20263060927391052,-0.381794810295105,0.018757672980427742,0.3777880370616913,0.16457247734069824,-0.1710650622844696,0.09512825310230255,-0.001712700119242072,0.030946480110287666,0.10155890136957169,0.22611616551876068,0.06633618474006653,0.06094378978013992,-0.06501256674528122,-0.027132421731948853,0.27904337644577026,-0.08737514168024063,-0.004563775844871998,0.23241043090820312,-0.0009154174476861954,0.008667154237627983,-0.04044639319181442,0.025773344561457634,-0.08747628331184387,0.0019955281168222427,-0.06862306594848633,-0.05774468556046486,-0.02134956233203411,0.0063446639105677605,0.0017802473157644272,0.12477889657020569,-0.20937396585941315,0.12888020277023315,-0.05615369230508804,0.0030430511105805635,-0.03883671388030052,0.026342058554291725,-0.013774198479950428,-0.05097753554582596,0.11835824698209763,-0.22668175399303436,0.17942050099372864,0.19915685057640076,0.06171531230211258,0.10166287422180176,0.1419225037097931,0.11416223645210266,-0.022497432306408882,0.004733610898256302,-0.19482120871543884,-0.020302986726164818,0.10032505542039871,-0.059838585555553436,0.12731274962425232,0.041594456881284714]
  },
  "Paul": {
    "name": "Paul",
    "descriptors": [0.0119013087823987,0.04123431444168091,0.005119852721691132,0.02654491923749447,-0.0007514585740864277,0.08168312907218933,0.023315470665693283,-0.10121536254882812,0.1469414383172989,-0.09902160614728928,0.16344432532787323,-0.0292060449719429,-0.26333245635032654,0.009800087660551071,-0.026317937299609184,0.14269697666168213,-0.11953575909137726,-0.0033473726361989975,-0.218312069773674,-0.07942257076501846,0.043371498584747314,0.07200085371732712,-0.013423854485154152,-0.01376273948699236,-0.193268820643425,-0.23137761652469635,-0.053038015961647034,-0.14166541397571564,0.04341360181570053,-0.0808216780424118,-0.008743258193135262,0.025430815294384956,-0.0830797329545021,0.04366813600063324,0.004180938005447388,0.007678935304284096,-0.07693600654602051,-0.04119689762592316,0.23255744576454163,0.05258180946111679,-0.13615132868289948,0.07981471717357635,0.008673558942973614,0.20334003865718842,0.1397705227136612,0.04984705150127411,0.04972334951162338,-0.06866508722305298,0.13687188923358917,-0.3301698863506317,0.07401319593191147,0.07746332138776779,0.0689440369606018,0.1756582409143448,0.12002244591712952,-0.2506083846092224,0.00016751140356063843,0.07804077118635178,-0.16133266687393188,0.17570151388645172,0.0522383376955986,-0.11016557365655899,-0.03685948997735977,0.00046929996460676193,0.14811919629573822,0.11175493896007538,-0.1386411190032959,-0.07913361489772797,0.12181999534368515,-0.17514410614967346,0.005718093365430832,0.02739846333861351,-0.06820885837078094,-0.17931491136550903,-0.295422226190567,0.0653473436832428,0.36671799421310425,0.18842484056949615,-0.19732733070850372,-0.04121626168489456,-0.04513252153992653,0.02669847384095192,0.1393510401248932,0.02964973635971546,-0.04208081215620041,-0.09251974523067474,-0.02541380748152733,0.008469708263874054,0.18855510652065277,-0.06657155603170395,-0.011965851299464703,0.2739488482475281,-0.02327536791563034,-0.0036504343152046204,-0.04686892777681351,0.031086744740605354,-0.1261412799358368,-0.05265594273805618,0.01603650487959385,0.06090182065963745,0.08335486054420471,-0.1417180597782135,0.08106908202171326,0.0538034662604332,-0.17849619686603546,0.22876812517642975,-0.0516970269382,0.0009522857144474983,0.06667184829711914,0.05150602012872696,-0.17274855077266693,0.0680035725235939,0.23628629744052887,-0.25685951113700867,0.27071413397789,0.17412739992141724,-0.0178531464189291,0.11164331436157227,0.06889952719211578,0.1278773993253708,-0.03584418445825577,0.07151824235916138,-0.18965810537338257,-0.11362448334693909,0.0194849893450737,-0.011024515144526958,-0.024538453668355942,0.04228159785270691]
  }
  
}
